$$\   $$\ $$\                                         $$\             $$\ 
$$$\  $$ |\__|                                        $$ |            $$ |
$$$$\ $$ |$$\  $$$$$$\   $$$$$$\   $$$$$$\   $$$$$$$\ $$ |  $$\       $$ |
$$ $$\$$ |$$ |$$  __$$\ $$  __$$\  \____$$\ $$  _____|$$ | $$  |      $$ |
$$ \$$$$ |$$ |$$ /  $$ |$$ /  $$ | $$$$$$$ |$$ /      $$$$$$  /       \__|
$$ |\$$$ |$$ |$$ |  $$ |$$ |  $$ |$$  __$$ |$$ |      $$  _$$<            
$$ | \$$ |$$ |\$$$$$$  |$$$$$$$  |\$$$$$$$ |\$$$$$$$\ $$ | \$$\       $$\ 
\__|  \__|\__| \______/ $$  ____/  \_______| \_______|\__|  \__|      \__|
                        $$ |                                              
                        $$ |                                              
                        \__|                                              
